{
  "stocks": [
    { "symbol": "GOOG", "shares": 10, "type": "stock" },
    { "symbol": "GOOGL", "shares": 1, "type": "stock" }
  ],
  "users": [
    {
      "username": "thePostman",
      "password": "foreverStamps",
      "securityQuestion": "why not?",
      "securityAnswer": "because...",
      "balance": 6789
    },
    {
      "username": "theOtherPostman",
      "password": "requestsWithBodies",
      "securityQuestion": "should I?",
      "securityAnswer": "probably",
      "balance": 5678
    }
  ]
}
